{
    "maps":[
        {
            "blocks":[
                { "x":0,"y":8 },
                { "x":1,"y":8 },
                { "x":2,"y":8 },
                { "x":3,"y":8 },
                { "x":4,"y":8 },
                { "x":5,"y":8 },
                { "x":6,"y":8 },
                { "x":7,"y":8 },
                { "x":8,"y":8 },
                { "x":9,"y":8 },
                { "x":10,"y":8 },
                { "x":11,"y":8 },
                { "x":12,"y":8 },
                { "x":13,"y":8 },
                { "x":14,"y":8 },
                { "x":15,"y":8 },
                { "x":16,"y":8 },
                { "x":17,"y":8 },
                { "x":18,"y":8 },
                { "x":19,"y":8 },
                { "x":0,"y":9 },
                { "x":1,"y":9 },
                { "x":2,"y":9 },
                { "x":3,"y":9 },
                { "x":4,"y":9 },
                { "x":5,"y":9 },
                { "x":6,"y":9 },
                { "x":7,"y":9 },
                { "x":8,"y":9 },
                { "x":9,"y":9 },
                { "x":10,"y":9 },
                { "x":11,"y":9 },
                { "x":12,"y":9 },
                { "x":13,"y":9 },
                { "x":14,"y":9 },
                { "x":15,"y":9 },
                { "x":16,"y":9 },
                { "x":17,"y":9 },
                { "x":18,"y":9 },
                { "x":19,"y":9 }
            ]
        },
        {
            "blocks":[
                { "x":0,"y":8 },
                { "x":1,"y":8 },
                { "x":2,"y":8 },
                { "x":3,"y":8 },
                { "x":18,"y":5 },
                { "x":17,"y":5 },
                { "x":16,"y":5 }
            ]
        },
        {
            "blocks":[
                { "x":0,"y":7 },
                { "x":1,"y":7 },
                { "x":2,"y":7 },
                { "x":0,"y":8 },
                { "x":1,"y":8 },
                { "x":2,"y":8 },
                { "x":5,"y":6 },
                { "x":5,"y":7 },
                { "x":6,"y":6 },
                { "x":6,"y":7 },
                { "x":9,"y":3 },
                { "x":9,"y":4 },
                { "x":10,"y":3 },
                { "x":10,"y":4 },
                { "x":13,"y":4 },
                { "x":13,"y":5 },
                { "x":14,"y":4 },
                { "x":14,"y":5 },
                { "x":17,"y":7 },
                { "x":17,"y":8 },
                { "x":18,"y":7 },
                { "x":18,"y":8 },
                { "x":19,"y":7 },
                { "x":19,"y":8 }
            ]
        },
        {
            "blocks":[
                { "x":0,"y":0 },
                { "x":1,"y":0 },
                { "x":2,"y":0 },
                { "x":3,"y":0 },
                { "x":4,"y":0 },
                { "x":5,"y":0 },
                { "x":6,"y":0 },
                { "x":7,"y":0 },
                { "x":8,"y":0 },
                { "x":9,"y":0 },
                { "x":10,"y":0 },
                { "x":11,"y":0 },
                { "x":12,"y":0 },
                { "x":13,"y":0 },
                { "x":14,"y":0 },
                { "x":15,"y":0 },
                { "x":16,"y":0 },
                { "x":17,"y":0 },
                { "x":18,"y":0 },
                { "x":19,"y":0 },
                { "x":19,"y":1 },
                { "x":19,"y":2 },
                { "x":19,"y":3 },
                { "x":19,"y":4 },
                { "x":19,"y":5 },
                { "x":19,"y":6 },
                { "x":19,"y":7 },
                { "x":19,"y":8 },
                { "x":19,"y":9 },
                { "x":18,"y":9 },
                { "x":17,"y":9 },
                { "x":16,"y":9 },
                { "x":15,"y":9 },
                { "x":14,"y":9 },
                { "x":13,"y":9 },
                { "x":12,"y":9 },
                { "x":11,"y":9 },
                { "x":10,"y":9 },
                { "x":9,"y":9 },
                { "x":8,"y":9 },
                { "x":7,"y":9 },
                { "x":6,"y":9 },
                { "x":5,"y":9 },
                { "x":4,"y":9 },
                { "x":3,"y":9 },
                { "x":2,"y":9 },
                { "x":1,"y":9 },
                { "x":0,"y":9 },
                { "x":0,"y":1 },
                { "x":0,"y":2 },
                { "x":0,"y":3 },
                { "x":0,"y":4 },
                { "x":0,"y":5 },
                { "x":0,"y":6 },
                { "x":0,"y":7 },
                { "x":0,"y":8 }
            ]
        },
        {
            "blocks":[
                { "x":0,"y":0 },
                { "x":1,"y":0 },
                { "x":2,"y":0 },
                { "x":3,"y":0 },
                { "x":4,"y":0 },
                { "x":5,"y":0 },
                { "x":6,"y":0 },
                { "x":7,"y":0 },
                { "x":8,"y":0 },
                { "x":9,"y":0 },
                { "x":10,"y":0 },
                { "x":11,"y":0 },
                { "x":12,"y":0 },
                { "x":13,"y":0 },
                { "x":14,"y":0 },
                { "x":15,"y":0 },
                { "x":16,"y":0 },
                { "x":17,"y":0 },
                { "x":18,"y":0 },
                { "x":19,"y":0 },
                { "x":19,"y":1 },
                { "x":19,"y":2 },
                { "x":19,"y":3 },
                { "x":19,"y":4 },
                { "x":19,"y":5 },
                { "x":19,"y":6 },
                { "x":19,"y":7 },
                { "x":19,"y":8 },
                { "x":19,"y":9 },
                { "x":18,"y":9 },
                { "x":17,"y":9 },
                { "x":16,"y":9 },
                { "x":15,"y":9 },
                { "x":14,"y":9 },
                { "x":13,"y":9 },
                { "x":12,"y":9 },
                { "x":11,"y":9 },
                { "x":10,"y":9 },
                { "x":9,"y":9 },
                { "x":8,"y":9 },
                { "x":7,"y":9 },
                { "x":6,"y":9 },
                { "x":5,"y":9 },
                { "x":4,"y":9 },
                { "x":3,"y":9 },
                { "x":2,"y":9 },
                { "x":1,"y":9 },
                { "x":0,"y":9 },
                { "x":0,"y":1 },
                { "x":0,"y":2 },
                { "x":0,"y":3 },
                { "x":0,"y":4 },
                { "x":0,"y":5 },
                { "x":0,"y":6 },
                { "x":0,"y":7 },
                { "x":0,"y":8 },
                { "x":17,"y":5 },
                { "x":17,"y":6 },
                { "x":17,"y":7 },
                { "x":17,"y":8 },
                { "x":18,"y":5 },
                { "x":18,"y":6 },
                { "x":18,"y":7 },
                { "x":18,"y":8 },
                { "x":14,"y":7 },
                { "x":15,"y":7 },
                { "x":14,"y":8 },
                { "x":15,"y":8 }
            ]
        },
        {
            "blocks":[
                { "x":1,"y":6 },
                { "x":2,"y":6 },
                { "x":1,"y":7 },
                { "x":2,"y":7 },
                { "x":1,"y":8 },
                { "x":2,"y":8 },
                { "x":1,"y":9 },
                { "x":2,"y":9 },
                { "x":4,"y":5 },
                { "x":5,"y":5 },
                { "x":4,"y":6 },
                { "x":5,"y":6 },
                { "x":4,"y":7 },
                { "x":5,"y":7 },
                { "x":4,"y":8 },
                { "x":5,"y":8 },
                { "x":4,"y":9 },
                { "x":5,"y":9 },
                { "x":7,"y":7 },
                { "x":8,"y":7 },
                { "x":7,"y":8 },
                { "x":8,"y":8 },
                { "x":7,"y":9 },
                { "x":8,"y":9 },
                { "x":17,"y":5 },
                { "x":18,"y":5 },
                { "x":17,"y":6 },
                { "x":18,"y":6 },
                { "x":17,"y":7 },
                { "x":18,"y":7 },
                { "x":17,"y":8 },
                { "x":18,"y":8 },
                { "x":17,"y":9 },
                { "x":18,"y":9 },
                { "x":14,"y":8 },
                { "x":15,"y":8 },
                { "x":14,"y":9 },
                { "x":15,"y":9 },
                { "x":11,"y":7 },
                { "x":12,"y":7 },
                { "x":11,"y":8 },
                { "x":12,"y":8 },
                { "x":11,"y":9 },
                { "x":12,"y":9 }
            ]
        },
        {
            "blocks":[
                { "x":1,"y":4 },
                { "x":2,"y":4 },
                { "x":18,"y":6 },
                { "x":17,"y":6 }
            ]
        },
        {
            "blocks":[
                { "x":0,"y":0 },
                { "x":1,"y":0 },
                { "x":2,"y":0 },
                { "x":3,"y":0 },
                { "x":4,"y":0 },
                { "x":5,"y":0 },
                { "x":6,"y":0 },
                { "x":7,"y":0 },
                { "x":8,"y":0 },
                { "x":9,"y":0 },
                { "x":10,"y":0 },
                { "x":11,"y":0 },
                { "x":12,"y":0 },
                { "x":13,"y":0 },
                { "x":14,"y":0 },
                { "x":15,"y":0 },
                { "x":16,"y":0 },
                { "x":17,"y":0 },
                { "x":18,"y":0 },
                { "x":19,"y":0 },
                { "x":19,"y":1 },
                { "x":19,"y":2 },
                { "x":19,"y":3 },
                { "x":19,"y":4 },
                { "x":19,"y":5 },
                { "x":19,"y":6 },
                { "x":19,"y":7 },
                { "x":19,"y":8 },
                { "x":19,"y":9 },
                { "x":18,"y":9 },
                { "x":17,"y":9 },
                { "x":16,"y":9 },
                { "x":15,"y":9 },
                { "x":14,"y":9 },
                { "x":13,"y":9 },
                { "x":12,"y":9 },
                { "x":11,"y":9 },
                { "x":10,"y":9 },
                { "x":9,"y":9 },
                { "x":8,"y":9 },
                { "x":7,"y":9 },
                { "x":6,"y":9 },
                { "x":5,"y":9 },
                { "x":4,"y":9 },
                { "x":3,"y":9 },
                { "x":2,"y":9 },
                { "x":1,"y":9 },
                { "x":0,"y":9 },
                { "x":0,"y":1 },
                { "x":0,"y":2 },
                { "x":0,"y":3 },
                { "x":0,"y":4 },
                { "x":0,"y":5 },
                { "x":0,"y":6 },
                { "x":0,"y":7 },
                { "x":0,"y":8 },
                { "x":17,"y":5 },
                { "x":17,"y":6 },
                { "x":17,"y":7 },
                { "x":17,"y":8 },
                { "x":18,"y":5 },
                { "x":18,"y":6 },
                { "x":18,"y":7 },
                { "x":18,"y":8 },
                { "x":16,"y":5 },
                { "x":16,"y":6 },
                { "x":16,"y":7 },
                { "x":16,"y":8 },
                { "x":15,"y":5 },
                { "x":15,"y":6 },
                { "x":15,"y":7 },
                { "x":15,"y":8 },
                { "x":14,"y":5 },
                { "x":14,"y":6 },
                { "x":14,"y":7 },
                { "x":14,"y":8 },
                { "x":13,"y":5 },
                { "x":13,"y":6 },
                { "x":13,"y":7 },
                { "x":13,"y":8 },
                { "x":12,"y":5 },
                { "x":12,"y":6 },
                { "x":12,"y":7 },
                { "x":12,"y":8 },
                { "x":11,"y":5 },
                { "x":11,"y":6 },
                { "x":11,"y":7 },
                { "x":11,"y":8 },
                { "x":10,"y":5 },
                { "x":10,"y":6 },
                { "x":10,"y":7 },
                { "x":10,"y":8 },
                { "x":9,"y":5 },
                { "x":9,"y":6 },
                { "x":9,"y":7 },
                { "x":9,"y":8 }
            ]
        },
        {
            "blocks":[
                { "x":0,"y":8 },
                { "x":1,"y":8 },
                { "x":2,"y":8 },
                { "x":0,"y":9 },
                { "x":1,"y":9 },
                { "x":2,"y":9 },
                { "x":19,"y":9 },
                { "x":18,"y":9 },
                { "x":17,"y":9 },
                { "x":19,"y":8 },
                { "x":18,"y":8 },
                { "x":17,"y":8 },
                { "x":9,"y":0 },
                { "x":10,"y":0 },
                { "x":9,"y":1 },
                { "x":9,"y":2 },
                { "x":10,"y":1 },
                { "x":10,"y":2 },
                { "x":9,"y":3 },
                { "x":10,"y":3 },
                { "x":9,"y":6 },
                { "x":9,"y":7 },
                { "x":9,"y":8 },
                { "x":10,"y":6 },
                { "x":10,"y":7 },
                { "x":10,"y":8 },
                { "x":9,"y":9 },
                { "x":10,"y":9 }
            ]
        },
        {
            "blocks":[
                { "x":1,"y":6 },
                { "x":2,"y":6 },
                { "x":1,"y":7 },
                { "x":2,"y":7 },
                { "x":1,"y":8 },
                { "x":2,"y":8 },
                { "x":1,"y":9 },
                { "x":2,"y":9 },
                { "x":10,"y":8 },
                { "x":10,"y":9 },
                { "x":11,"y":8 },
                { "x":11,"y":9 },
                { "x":12,"y":8 },
                { "x":12,"y":9 },
                { "x":13,"y":8 },
                { "x":13,"y":9 },
                { "x":14,"y":8 },
                { "x":14,"y":9 },
                { "x":15,"y":8 },
                { "x":15,"y":9 },
                { "x":16,"y":8 },
                { "x":16,"y":9 },
                { "x":17,"y":8 },
                { "x":17,"y":9 },
                { "x":18,"y":8 },
                { "x":18,"y":9 },
                { "x":19,"y":8 },
                { "x":19,"y":9 }
            ]
        }
    ]
}