{"players": [
  {
    "maxhp": 100,
    "money": 10,
    "level": 1,
    "id": "\n",
    "power": 10,
    "type": "default"
  },
  {
    "maxhp": 100,
    "money": 10,
    "level": 1,
    "power": 20,
    "id": "joonchoi518",
    "type": "knight"
  },
  {
    "maxhp": 100,
    "money": 0,
    "level": 15,
    "power": 10,
    "id": "gmdefault",
    "type": "default"
  },
  {
    "maxhp": 100,
    "money": 0,
    "level": 15,
    "power": 20,
    "id": "gmknight",
    "type": "knight"
  },
  {
    "maxhp": 150,
    "money": 0,
    "level": 15,
    "power": 10,
    "id": "gmpaladin",
    "type": "paladin"
  },
  {
    "maxhp": 100,
    "money": 0,
    "level": 15,
    "power": 10,
    "id": "gmpirate",
    "type": "pirate"
  },
  {
    "maxhp": 100,
    "money": 500,
    "level": 15,
    "power": 10,
    "id": "gmrich",
    "type": "default"
  },
  {
    "maxhp": 100,
    "money": 0,
    "level": 0,
    "power": 20,
    "id": "newuser",
    "type": "knight"
  },
  {
    "maxhp": 150,
    "money": 0,
    "level": 0,
    "power": 10,
    "id": "testing",
    "type": "paladin"
  },
  {
    "maxhp": 100,
    "money": 0,
    "level": 0,
    "power": 20,
    "id": "prepostest",
    "type": "knight"
  }
]}